%!PS-Adobe-2.0 EPSF-2.0
%%Title: plot1.tex
%%Creator: gnuplot 4.4 patchlevel 3
%%CreationDate: Thu Dec 22 00:38:12 2011
%%DocumentFonts: 
%%BoundingBox: 50 50 410 302
%%EndComments
%%BeginProlog
/gnudict 256 dict def
gnudict begin
%
% The following true/false flags may be edited by hand if desired.
% The unit line width and grayscale image gamma correction may also be changed.
%
/Color false def
/Blacktext true def
/Solid false def
/Dashlength 1 def
/Landscape false def
/Level1 false def
/Rounded false def
/ClipToBoundingBox false def
/TransparentPatterns false def
/gnulinewidth 5.000 def
/userlinewidth gnulinewidth def
/Gamma 1.0 def
%
/vshift -73 def
/dl1 {
  10.0 Dashlength mul mul
  Rounded { currentlinewidth 0.75 mul sub dup 0 le { pop 0.01 } if } if
} def
/dl2 {
  10.0 Dashlength mul mul
  Rounded { currentlinewidth 0.75 mul add } if
} def
/hpt_ 31.5 def
/vpt_ 31.5 def
/hpt hpt_ def
/vpt vpt_ def
Level1 {} {
/SDict 10 dict def
systemdict /pdfmark known not {
  userdict /pdfmark systemdict /cleartomark get put
} if
SDict begin [
  /Title (plot1.tex)
  /Subject (gnuplot plot)
  /Creator (gnuplot 4.4 patchlevel 3)
  /Author (gimmy)
%  /Producer (gnuplot)
%  /Keywords ()
  /CreationDate (Thu Dec 22 00:38:12 2011)
  /DOCINFO pdfmark
end
} ifelse
/doclip {
  ClipToBoundingBox {
    newpath 50 50 moveto 410 50 lineto 410 302 lineto 50 302 lineto closepath
    clip
  } if
} def
%
% Gnuplot Prolog Version 4.4 (August 2010)
%
%/SuppressPDFMark true def
%
/M {moveto} bind def
/L {lineto} bind def
/R {rmoveto} bind def
/V {rlineto} bind def
/N {newpath moveto} bind def
/Z {closepath} bind def
/C {setrgbcolor} bind def
/f {rlineto fill} bind def
/g {setgray} bind def
/Gshow {show} def   % May be redefined later in the file to support UTF-8
/vpt2 vpt 2 mul def
/hpt2 hpt 2 mul def
/Lshow {currentpoint stroke M 0 vshift R 
	Blacktext {gsave 0 setgray show grestore} {show} ifelse} def
/Rshow {currentpoint stroke M dup stringwidth pop neg vshift R
	Blacktext {gsave 0 setgray show grestore} {show} ifelse} def
/Cshow {currentpoint stroke M dup stringwidth pop -2 div vshift R 
	Blacktext {gsave 0 setgray show grestore} {show} ifelse} def
/UP {dup vpt_ mul /vpt exch def hpt_ mul /hpt exch def
  /hpt2 hpt 2 mul def /vpt2 vpt 2 mul def} def
/DL {Color {setrgbcolor Solid {pop []} if 0 setdash}
 {pop pop pop 0 setgray Solid {pop []} if 0 setdash} ifelse} def
/BL {stroke userlinewidth 2 mul setlinewidth
	Rounded {1 setlinejoin 1 setlinecap} if} def
/AL {stroke userlinewidth 2 div setlinewidth
	Rounded {1 setlinejoin 1 setlinecap} if} def
/UL {dup gnulinewidth mul /userlinewidth exch def
	dup 1 lt {pop 1} if 10 mul /udl exch def} def
/PL {stroke userlinewidth setlinewidth
	Rounded {1 setlinejoin 1 setlinecap} if} def
3.8 setmiterlimit
% Default Line colors
/LCw {1 1 1} def
/LCb {0 0 0} def
/LCa {0 0 0} def
/LC0 {1 0 0} def
/LC1 {0 1 0} def
/LC2 {0 0 1} def
/LC3 {1 0 1} def
/LC4 {0 1 1} def
/LC5 {1 1 0} def
/LC6 {0 0 0} def
/LC7 {1 0.3 0} def
/LC8 {0.5 0.5 0.5} def
% Default Line Types
/LTw {PL [] 1 setgray} def
/LTb {BL [] LCb DL} def
/LTa {AL [1 udl mul 2 udl mul] 0 setdash LCa setrgbcolor} def
/LT0 {PL [] LC0 DL} def
/LT1 {PL [4 dl1 2 dl2] LC1 DL} def
/LT2 {PL [2 dl1 3 dl2] LC2 DL} def
/LT3 {PL [1 dl1 1.5 dl2] LC3 DL} def
/LT4 {PL [6 dl1 2 dl2 1 dl1 2 dl2] LC4 DL} def
/LT5 {PL [3 dl1 3 dl2 1 dl1 3 dl2] LC5 DL} def
/LT6 {PL [2 dl1 2 dl2 2 dl1 6 dl2] LC6 DL} def
/LT7 {PL [1 dl1 2 dl2 6 dl1 2 dl2 1 dl1 2 dl2] LC7 DL} def
/LT8 {PL [2 dl1 2 dl2 2 dl1 2 dl2 2 dl1 2 dl2 2 dl1 4 dl2] LC8 DL} def
/Pnt {stroke [] 0 setdash gsave 1 setlinecap M 0 0 V stroke grestore} def
/Dia {stroke [] 0 setdash 2 copy vpt add M
  hpt neg vpt neg V hpt vpt neg V
  hpt vpt V hpt neg vpt V closepath stroke
  Pnt} def
/Pls {stroke [] 0 setdash vpt sub M 0 vpt2 V
  currentpoint stroke M
  hpt neg vpt neg R hpt2 0 V stroke
 } def
/Box {stroke [] 0 setdash 2 copy exch hpt sub exch vpt add M
  0 vpt2 neg V hpt2 0 V 0 vpt2 V
  hpt2 neg 0 V closepath stroke
  Pnt} def
/Crs {stroke [] 0 setdash exch hpt sub exch vpt add M
  hpt2 vpt2 neg V currentpoint stroke M
  hpt2 neg 0 R hpt2 vpt2 V stroke} def
/TriU {stroke [] 0 setdash 2 copy vpt 1.12 mul add M
  hpt neg vpt -1.62 mul V
  hpt 2 mul 0 V
  hpt neg vpt 1.62 mul V closepath stroke
  Pnt} def
/Star {2 copy Pls Crs} def
/BoxF {stroke [] 0 setdash exch hpt sub exch vpt add M
  0 vpt2 neg V hpt2 0 V 0 vpt2 V
  hpt2 neg 0 V closepath fill} def
/TriUF {stroke [] 0 setdash vpt 1.12 mul add M
  hpt neg vpt -1.62 mul V
  hpt 2 mul 0 V
  hpt neg vpt 1.62 mul V closepath fill} def
/TriD {stroke [] 0 setdash 2 copy vpt 1.12 mul sub M
  hpt neg vpt 1.62 mul V
  hpt 2 mul 0 V
  hpt neg vpt -1.62 mul V closepath stroke
  Pnt} def
/TriDF {stroke [] 0 setdash vpt 1.12 mul sub M
  hpt neg vpt 1.62 mul V
  hpt 2 mul 0 V
  hpt neg vpt -1.62 mul V closepath fill} def
/DiaF {stroke [] 0 setdash vpt add M
  hpt neg vpt neg V hpt vpt neg V
  hpt vpt V hpt neg vpt V closepath fill} def
/Pent {stroke [] 0 setdash 2 copy gsave
  translate 0 hpt M 4 {72 rotate 0 hpt L} repeat
  closepath stroke grestore Pnt} def
/PentF {stroke [] 0 setdash gsave
  translate 0 hpt M 4 {72 rotate 0 hpt L} repeat
  closepath fill grestore} def
/Circle {stroke [] 0 setdash 2 copy
  hpt 0 360 arc stroke Pnt} def
/CircleF {stroke [] 0 setdash hpt 0 360 arc fill} def
/C0 {BL [] 0 setdash 2 copy moveto vpt 90 450 arc} bind def
/C1 {BL [] 0 setdash 2 copy moveto
	2 copy vpt 0 90 arc closepath fill
	vpt 0 360 arc closepath} bind def
/C2 {BL [] 0 setdash 2 copy moveto
	2 copy vpt 90 180 arc closepath fill
	vpt 0 360 arc closepath} bind def
/C3 {BL [] 0 setdash 2 copy moveto
	2 copy vpt 0 180 arc closepath fill
	vpt 0 360 arc closepath} bind def
/C4 {BL [] 0 setdash 2 copy moveto
	2 copy vpt 180 270 arc closepath fill
	vpt 0 360 arc closepath} bind def
/C5 {BL [] 0 setdash 2 copy moveto
	2 copy vpt 0 90 arc
	2 copy moveto
	2 copy vpt 180 270 arc closepath fill
	vpt 0 360 arc} bind def
/C6 {BL [] 0 setdash 2 copy moveto
	2 copy vpt 90 270 arc closepath fill
	vpt 0 360 arc closepath} bind def
/C7 {BL [] 0 setdash 2 copy moveto
	2 copy vpt 0 270 arc closepath fill
	vpt 0 360 arc closepath} bind def
/C8 {BL [] 0 setdash 2 copy moveto
	2 copy vpt 270 360 arc closepath fill
	vpt 0 360 arc closepath} bind def
/C9 {BL [] 0 setdash 2 copy moveto
	2 copy vpt 270 450 arc closepath fill
	vpt 0 360 arc closepath} bind def
/C10 {BL [] 0 setdash 2 copy 2 copy moveto vpt 270 360 arc closepath fill
	2 copy moveto
	2 copy vpt 90 180 arc closepath fill
	vpt 0 360 arc closepath} bind def
/C11 {BL [] 0 setdash 2 copy moveto
	2 copy vpt 0 180 arc closepath fill
	2 copy moveto
	2 copy vpt 270 360 arc closepath fill
	vpt 0 360 arc closepath} bind def
/C12 {BL [] 0 setdash 2 copy moveto
	2 copy vpt 180 360 arc closepath fill
	vpt 0 360 arc closepath} bind def
/C13 {BL [] 0 setdash 2 copy moveto
	2 copy vpt 0 90 arc closepath fill
	2 copy moveto
	2 copy vpt 180 360 arc closepath fill
	vpt 0 360 arc closepath} bind def
/C14 {BL [] 0 setdash 2 copy moveto
	2 copy vpt 90 360 arc closepath fill
	vpt 0 360 arc} bind def
/C15 {BL [] 0 setdash 2 copy vpt 0 360 arc closepath fill
	vpt 0 360 arc closepath} bind def
/Rec {newpath 4 2 roll moveto 1 index 0 rlineto 0 exch rlineto
	neg 0 rlineto closepath} bind def
/Square {dup Rec} bind def
/Bsquare {vpt sub exch vpt sub exch vpt2 Square} bind def
/S0 {BL [] 0 setdash 2 copy moveto 0 vpt rlineto BL Bsquare} bind def
/S1 {BL [] 0 setdash 2 copy vpt Square fill Bsquare} bind def
/S2 {BL [] 0 setdash 2 copy exch vpt sub exch vpt Square fill Bsquare} bind def
/S3 {BL [] 0 setdash 2 copy exch vpt sub exch vpt2 vpt Rec fill Bsquare} bind def
/S4 {BL [] 0 setdash 2 copy exch vpt sub exch vpt sub vpt Square fill Bsquare} bind def
/S5 {BL [] 0 setdash 2 copy 2 copy vpt Square fill
	exch vpt sub exch vpt sub vpt Square fill Bsquare} bind def
/S6 {BL [] 0 setdash 2 copy exch vpt sub exch vpt sub vpt vpt2 Rec fill Bsquare} bind def
/S7 {BL [] 0 setdash 2 copy exch vpt sub exch vpt sub vpt vpt2 Rec fill
	2 copy vpt Square fill Bsquare} bind def
/S8 {BL [] 0 setdash 2 copy vpt sub vpt Square fill Bsquare} bind def
/S9 {BL [] 0 setdash 2 copy vpt sub vpt vpt2 Rec fill Bsquare} bind def
/S10 {BL [] 0 setdash 2 copy vpt sub vpt Square fill 2 copy exch vpt sub exch vpt Square fill
	Bsquare} bind def
/S11 {BL [] 0 setdash 2 copy vpt sub vpt Square fill 2 copy exch vpt sub exch vpt2 vpt Rec fill
	Bsquare} bind def
/S12 {BL [] 0 setdash 2 copy exch vpt sub exch vpt sub vpt2 vpt Rec fill Bsquare} bind def
/S13 {BL [] 0 setdash 2 copy exch vpt sub exch vpt sub vpt2 vpt Rec fill
	2 copy vpt Square fill Bsquare} bind def
/S14 {BL [] 0 setdash 2 copy exch vpt sub exch vpt sub vpt2 vpt Rec fill
	2 copy exch vpt sub exch vpt Square fill Bsquare} bind def
/S15 {BL [] 0 setdash 2 copy Bsquare fill Bsquare} bind def
/D0 {gsave translate 45 rotate 0 0 S0 stroke grestore} bind def
/D1 {gsave translate 45 rotate 0 0 S1 stroke grestore} bind def
/D2 {gsave translate 45 rotate 0 0 S2 stroke grestore} bind def
/D3 {gsave translate 45 rotate 0 0 S3 stroke grestore} bind def
/D4 {gsave translate 45 rotate 0 0 S4 stroke grestore} bind def
/D5 {gsave translate 45 rotate 0 0 S5 stroke grestore} bind def
/D6 {gsave translate 45 rotate 0 0 S6 stroke grestore} bind def
/D7 {gsave translate 45 rotate 0 0 S7 stroke grestore} bind def
/D8 {gsave translate 45 rotate 0 0 S8 stroke grestore} bind def
/D9 {gsave translate 45 rotate 0 0 S9 stroke grestore} bind def
/D10 {gsave translate 45 rotate 0 0 S10 stroke grestore} bind def
/D11 {gsave translate 45 rotate 0 0 S11 stroke grestore} bind def
/D12 {gsave translate 45 rotate 0 0 S12 stroke grestore} bind def
/D13 {gsave translate 45 rotate 0 0 S13 stroke grestore} bind def
/D14 {gsave translate 45 rotate 0 0 S14 stroke grestore} bind def
/D15 {gsave translate 45 rotate 0 0 S15 stroke grestore} bind def
/DiaE {stroke [] 0 setdash vpt add M
  hpt neg vpt neg V hpt vpt neg V
  hpt vpt V hpt neg vpt V closepath stroke} def
/BoxE {stroke [] 0 setdash exch hpt sub exch vpt add M
  0 vpt2 neg V hpt2 0 V 0 vpt2 V
  hpt2 neg 0 V closepath stroke} def
/TriUE {stroke [] 0 setdash vpt 1.12 mul add M
  hpt neg vpt -1.62 mul V
  hpt 2 mul 0 V
  hpt neg vpt 1.62 mul V closepath stroke} def
/TriDE {stroke [] 0 setdash vpt 1.12 mul sub M
  hpt neg vpt 1.62 mul V
  hpt 2 mul 0 V
  hpt neg vpt -1.62 mul V closepath stroke} def
/PentE {stroke [] 0 setdash gsave
  translate 0 hpt M 4 {72 rotate 0 hpt L} repeat
  closepath stroke grestore} def
/CircE {stroke [] 0 setdash 
  hpt 0 360 arc stroke} def
/Opaque {gsave closepath 1 setgray fill grestore 0 setgray closepath} def
/DiaW {stroke [] 0 setdash vpt add M
  hpt neg vpt neg V hpt vpt neg V
  hpt vpt V hpt neg vpt V Opaque stroke} def
/BoxW {stroke [] 0 setdash exch hpt sub exch vpt add M
  0 vpt2 neg V hpt2 0 V 0 vpt2 V
  hpt2 neg 0 V Opaque stroke} def
/TriUW {stroke [] 0 setdash vpt 1.12 mul add M
  hpt neg vpt -1.62 mul V
  hpt 2 mul 0 V
  hpt neg vpt 1.62 mul V Opaque stroke} def
/TriDW {stroke [] 0 setdash vpt 1.12 mul sub M
  hpt neg vpt 1.62 mul V
  hpt 2 mul 0 V
  hpt neg vpt -1.62 mul V Opaque stroke} def
/PentW {stroke [] 0 setdash gsave
  translate 0 hpt M 4 {72 rotate 0 hpt L} repeat
  Opaque stroke grestore} def
/CircW {stroke [] 0 setdash 
  hpt 0 360 arc Opaque stroke} def
/BoxFill {gsave Rec 1 setgray fill grestore} def
/Density {
  /Fillden exch def
  currentrgbcolor
  /ColB exch def /ColG exch def /ColR exch def
  /ColR ColR Fillden mul Fillden sub 1 add def
  /ColG ColG Fillden mul Fillden sub 1 add def
  /ColB ColB Fillden mul Fillden sub 1 add def
  ColR ColG ColB setrgbcolor} def
/BoxColFill {gsave Rec PolyFill} def
/PolyFill {gsave Density fill grestore grestore} def
/h {rlineto rlineto rlineto gsave closepath fill grestore} bind def
%
% PostScript Level 1 Pattern Fill routine for rectangles
% Usage: x y w h s a XX PatternFill
%	x,y = lower left corner of box to be filled
%	w,h = width and height of box
%	  a = angle in degrees between lines and x-axis
%	 XX = 0/1 for no/yes cross-hatch
%
/PatternFill {gsave /PFa [ 9 2 roll ] def
  PFa 0 get PFa 2 get 2 div add PFa 1 get PFa 3 get 2 div add translate
  PFa 2 get -2 div PFa 3 get -2 div PFa 2 get PFa 3 get Rec
  gsave 1 setgray fill grestore clip
  currentlinewidth 0.5 mul setlinewidth
  /PFs PFa 2 get dup mul PFa 3 get dup mul add sqrt def
  0 0 M PFa 5 get rotate PFs -2 div dup translate
  0 1 PFs PFa 4 get div 1 add floor cvi
	{PFa 4 get mul 0 M 0 PFs V} for
  0 PFa 6 get ne {
	0 1 PFs PFa 4 get div 1 add floor cvi
	{PFa 4 get mul 0 2 1 roll M PFs 0 V} for
 } if
  stroke grestore} def
%
/languagelevel where
 {pop languagelevel} {1} ifelse
 2 lt
	{/InterpretLevel1 true def}
	{/InterpretLevel1 Level1 def}
 ifelse
%
% PostScript level 2 pattern fill definitions
%
/Level2PatternFill {
/Tile8x8 {/PaintType 2 /PatternType 1 /TilingType 1 /BBox [0 0 8 8] /XStep 8 /YStep 8}
	bind def
/KeepColor {currentrgbcolor [/Pattern /DeviceRGB] setcolorspace} bind def
<< Tile8x8
 /PaintProc {0.5 setlinewidth pop 0 0 M 8 8 L 0 8 M 8 0 L stroke} 
>> matrix makepattern
/Pat1 exch def
<< Tile8x8
 /PaintProc {0.5 setlinewidth pop 0 0 M 8 8 L 0 8 M 8 0 L stroke
	0 4 M 4 8 L 8 4 L 4 0 L 0 4 L stroke}
>> matrix makepattern
/Pat2 exch def
<< Tile8x8
 /PaintProc {0.5 setlinewidth pop 0 0 M 0 8 L
	8 8 L 8 0 L 0 0 L fill}
>> matrix makepattern
/Pat3 exch def
<< Tile8x8
 /PaintProc {0.5 setlinewidth pop -4 8 M 8 -4 L
	0 12 M 12 0 L stroke}
>> matrix makepattern
/Pat4 exch def
<< Tile8x8
 /PaintProc {0.5 setlinewidth pop -4 0 M 8 12 L
	0 -4 M 12 8 L stroke}
>> matrix makepattern
/Pat5 exch def
<< Tile8x8
 /PaintProc {0.5 setlinewidth pop -2 8 M 4 -4 L
	0 12 M 8 -4 L 4 12 M 10 0 L stroke}
>> matrix makepattern
/Pat6 exch def
<< Tile8x8
 /PaintProc {0.5 setlinewidth pop -2 0 M 4 12 L
	0 -4 M 8 12 L 4 -4 M 10 8 L stroke}
>> matrix makepattern
/Pat7 exch def
<< Tile8x8
 /PaintProc {0.5 setlinewidth pop 8 -2 M -4 4 L
	12 0 M -4 8 L 12 4 M 0 10 L stroke}
>> matrix makepattern
/Pat8 exch def
<< Tile8x8
 /PaintProc {0.5 setlinewidth pop 0 -2 M 12 4 L
	-4 0 M 12 8 L -4 4 M 8 10 L stroke}
>> matrix makepattern
/Pat9 exch def
/Pattern1 {PatternBgnd KeepColor Pat1 setpattern} bind def
/Pattern2 {PatternBgnd KeepColor Pat2 setpattern} bind def
/Pattern3 {PatternBgnd KeepColor Pat3 setpattern} bind def
/Pattern4 {PatternBgnd KeepColor Landscape {Pat5} {Pat4} ifelse setpattern} bind def
/Pattern5 {PatternBgnd KeepColor Landscape {Pat4} {Pat5} ifelse setpattern} bind def
/Pattern6 {PatternBgnd KeepColor Landscape {Pat9} {Pat6} ifelse setpattern} bind def
/Pattern7 {PatternBgnd KeepColor Landscape {Pat8} {Pat7} ifelse setpattern} bind def
} def
%
%
%End of PostScript Level 2 code
%
/PatternBgnd {
  TransparentPatterns {} {gsave 1 setgray fill grestore} ifelse
} def
%
% Substitute for Level 2 pattern fill codes with
% grayscale if Level 2 support is not selected.
%
/Level1PatternFill {
/Pattern1 {0.250 Density} bind def
/Pattern2 {0.500 Density} bind def
/Pattern3 {0.750 Density} bind def
/Pattern4 {0.125 Density} bind def
/Pattern5 {0.375 Density} bind def
/Pattern6 {0.625 Density} bind def
/Pattern7 {0.875 Density} bind def
} def
%
% Now test for support of Level 2 code
%
Level1 {Level1PatternFill} {Level2PatternFill} ifelse
%
/Symbol-Oblique /Symbol findfont [1 0 .167 1 0 0] makefont
dup length dict begin {1 index /FID eq {pop pop} {def} ifelse} forall
currentdict end definefont pop
end
%%EndProlog
gnudict begin
gsave
doclip
50 50 translate
0.050 0.050 scale
0 setgray
newpath
1.000 UL
LTb
1386 440 M
63 0 V
5354 0 R
-63 0 V
1386 1059 M
63 0 V
5354 0 R
-63 0 V
1386 1679 M
63 0 V
5354 0 R
-63 0 V
1386 2298 M
63 0 V
5354 0 R
-63 0 V
1386 2917 M
63 0 V
5354 0 R
-63 0 V
1386 3536 M
63 0 V
5354 0 R
-63 0 V
1386 4156 M
63 0 V
5354 0 R
-63 0 V
1386 4775 M
63 0 V
5354 0 R
-63 0 V
1386 440 M
0 63 V
0 4272 R
0 -63 V
1928 440 M
0 63 V
0 4272 R
0 -63 V
2469 440 M
0 63 V
0 4272 R
0 -63 V
3011 440 M
0 63 V
0 4272 R
0 -63 V
3553 440 M
0 63 V
0 4272 R
0 -63 V
4095 440 M
0 63 V
0 4272 R
0 -63 V
4636 440 M
0 63 V
0 4272 R
0 -63 V
5178 440 M
0 63 V
0 4272 R
0 -63 V
5720 440 M
0 63 V
0 4272 R
0 -63 V
6261 440 M
0 63 V
0 4272 R
0 -63 V
6803 440 M
0 63 V
0 4272 R
0 -63 V
stroke
1386 4775 N
0 -4335 V
5417 0 V
0 4335 V
-5417 0 V
Z stroke
1.000 UP
1.000 UL
LTb
1.000 UL
LT0
LTb
LT0
5948 4547 N
591 0 V
0 110 V
-591 0 V
0 -110 V
Z stroke
1386 440 N
0 12 V
25 0 V
0 -12 V
-25 0 V
Z stroke
1411 440 N
0 11 V
51 0 V
0 -11 V
-51 0 V
Z stroke
1462 440 N
0 10 V
51 0 V
0 -10 V
-51 0 V
Z stroke
1513 440 N
0 7 V
50 0 V
0 -7 V
-50 0 V
Z stroke
1563 440 N
0 5 V
51 0 V
0 -5 V
-51 0 V
Z stroke
1614 440 N
0 3 V
51 0 V
0 -3 V
-51 0 V
Z stroke
1665 440 N
0 2 V
50 0 V
0 -2 V
-50 0 V
Z stroke
1715 440 N
0 2 V
51 0 V
0 -2 V
-51 0 V
Z stroke
1766 440 N
0 2 V
51 0 V
0 -2 V
-51 0 V
Z stroke
1817 440 N
0 2 V
51 0 V
0 -2 V
-51 0 V
Z stroke
1868 440 N
0 3 V
50 0 V
0 -3 V
-50 0 V
Z stroke
1918 440 N
0 5 V
51 0 V
0 -5 V
-51 0 V
Z stroke
1969 440 N
0 7 V
51 0 V
0 -7 V
-51 0 V
Z stroke
2020 440 N
0 9 V
50 0 V
0 -9 V
-50 0 V
Z stroke
2070 440 N
0 12 V
51 0 V
0 -12 V
-51 0 V
Z stroke
2121 440 N
0 16 V
51 0 V
0 -16 V
-51 0 V
Z stroke
2172 440 N
0 19 V
50 0 V
0 -19 V
-50 0 V
Z stroke
2222 440 N
0 22 V
51 0 V
0 -22 V
-51 0 V
Z stroke
2273 440 N
0 25 V
51 0 V
0 -25 V
-51 0 V
Z stroke
2324 440 N
0 27 V
50 0 V
0 -27 V
-50 0 V
Z stroke
2374 440 N
0 30 V
51 0 V
0 -30 V
-51 0 V
Z stroke
2425 440 N
0 31 V
51 0 V
0 -31 V
-51 0 V
Z stroke
2476 440 N
0 33 V
50 0 V
0 -33 V
-50 0 V
Z stroke
2526 440 N
0 33 V
51 0 V
0 -33 V
-51 0 V
Z stroke
2577 440 N
0 33 V
51 0 V
0 -33 V
-51 0 V
Z stroke
2628 440 N
0 32 V
50 0 V
0 -32 V
-50 0 V
Z stroke
2678 440 N
0 29 V
51 0 V
0 -29 V
-51 0 V
Z stroke
2729 440 N
0 27 V
51 0 V
0 -27 V
-51 0 V
Z stroke
2780 440 N
0 24 V
51 0 V
0 -24 V
-51 0 V
Z stroke
2831 440 N
0 22 V
50 0 V
0 -22 V
-50 0 V
Z stroke
2881 440 N
0 21 V
51 0 V
0 -21 V
-51 0 V
Z stroke
2932 440 N
0 22 V
51 0 V
0 -22 V
-51 0 V
Z stroke
2983 440 N
0 25 V
50 0 V
0 -25 V
-50 0 V
Z stroke
3033 440 N
0 29 V
51 0 V
0 -29 V
-51 0 V
Z stroke
3084 440 N
0 34 V
51 0 V
0 -34 V
-51 0 V
Z stroke
3135 440 N
0 41 V
50 0 V
0 -41 V
-50 0 V
Z stroke
3185 440 N
0 50 V
51 0 V
0 -50 V
-51 0 V
Z stroke
3236 440 N
0 61 V
51 0 V
0 -61 V
-51 0 V
Z stroke
3287 440 N
0 73 V
50 0 V
0 -73 V
-50 0 V
Z stroke
3337 440 N
0 85 V
51 0 V
0 -85 V
-51 0 V
Z stroke
3388 440 N
0 95 V
51 0 V
0 -95 V
-51 0 V
Z stroke
3439 440 N
0 104 V
50 0 V
0 -104 V
-50 0 V
Z stroke
3489 440 N
0 113 V
51 0 V
0 -113 V
-51 0 V
Z stroke
3540 440 N
0 121 V
51 0 V
0 -121 V
-51 0 V
Z stroke
3591 440 N
0 129 V
50 0 V
0 -129 V
-50 0 V
Z stroke
3641 440 N
0 138 V
51 0 V
0 -138 V
-51 0 V
Z stroke
3692 440 N
0 148 V
51 0 V
0 -148 V
-51 0 V
Z stroke
3743 440 N
0 161 V
51 0 V
0 -161 V
-51 0 V
Z stroke
3794 440 N
0 181 V
50 0 V
0 -181 V
-50 0 V
Z stroke
3844 440 N
0 213 V
51 0 V
0 -213 V
-51 0 V
Z stroke
3895 440 N
0 262 V
51 0 V
0 -262 V
-51 0 V
Z stroke
3946 440 N
0 331 V
50 0 V
0 -331 V
-50 0 V
Z stroke
3996 440 N
0 418 V
51 0 V
0 -418 V
-51 0 V
Z stroke
4047 440 N
0 516 V
51 0 V
0 -516 V
-51 0 V
Z stroke
4098 440 N
0 615 V
50 0 V
0 -615 V
-50 0 V
Z stroke
4148 440 N
0 705 V
51 0 V
0 -705 V
-51 0 V
Z stroke
4199 440 N
0 778 V
51 0 V
0 -778 V
-51 0 V
Z stroke
4250 440 N
0 834 V
50 0 V
0 -834 V
-50 0 V
Z stroke
4300 440 N
0 881 V
51 0 V
0 -881 V
-51 0 V
Z stroke
4351 440 N
0 933 V
51 0 V
0 -933 V
-51 0 V
Z stroke
4402 440 N
0 1000 V
50 0 V
0 -1000 V
-50 0 V
Z stroke
4452 440 N
0 1087 V
51 0 V
0 -1087 V
-51 0 V
Z stroke
4503 440 N
0 1190 V
51 0 V
0 -1190 V
-51 0 V
Z stroke
4554 440 N
0 1306 V
50 0 V
0 -1306 V
-50 0 V
Z stroke
4604 440 N
0 1432 V
51 0 V
0 -1432 V
-51 0 V
Z stroke
4655 440 N
0 1573 V
51 0 V
0 -1573 V
-51 0 V
Z stroke
4706 440 N
0 1739 V
51 0 V
0 -1739 V
-51 0 V
Z stroke
4757 440 N
0 1943 V
50 0 V
0 -1943 V
-50 0 V
Z stroke
4807 440 N
0 2199 V
51 0 V
0 -2199 V
-51 0 V
Z stroke
4858 440 N
0 2511 V
51 0 V
0 -2511 V
-51 0 V
Z stroke
4909 440 N
0 2874 V
50 0 V
0 -2874 V
-50 0 V
Z stroke
4959 440 N
0 3267 V
51 0 V
0 -3267 V
-51 0 V
Z stroke
5010 440 N
0 3652 V
51 0 V
0 -3652 V
-51 0 V
Z stroke
5061 440 N
0 3981 V
50 0 V
0 -3981 V
-50 0 V
Z stroke
5111 440 N
0 4209 V
51 0 V
0 -4209 V
-51 0 V
Z stroke
5162 440 N
0 4303 V
51 0 V
0 -4303 V
-51 0 V
Z stroke
5213 440 N
0 4251 V
50 0 V
0 -4251 V
-50 0 V
Z stroke
5263 440 N
0 4069 V
51 0 V
0 -4069 V
-51 0 V
Z stroke
5314 440 N
0 3792 V
51 0 V
0 -3792 V
-51 0 V
Z stroke
5365 440 N
0 3463 V
50 0 V
0 -3463 V
-50 0 V
Z stroke
5415 440 N
0 3126 V
51 0 V
0 -3126 V
-51 0 V
Z stroke
5466 440 N
0 2814 V
51 0 V
0 -2814 V
-51 0 V
Z stroke
5517 440 N
0 2550 V
50 0 V
0 -2550 V
-50 0 V
Z stroke
5567 440 N
0 2344 V
51 0 V
0 -2344 V
-51 0 V
Z stroke
5618 440 N
0 2191 V
51 0 V
0 -2191 V
-51 0 V
Z stroke
5669 440 N
0 2078 V
51 0 V
0 -2078 V
-51 0 V
Z stroke
5720 440 N
0 1980 V
50 0 V
0 -1980 V
-50 0 V
Z stroke
5770 440 N
0 1876 V
51 0 V
0 -1876 V
-51 0 V
Z stroke
5821 440 N
0 1746 V
51 0 V
0 -1746 V
-51 0 V
Z stroke
5872 440 N
0 1585 V
50 0 V
0 -1585 V
-50 0 V
Z stroke
5922 440 N
0 1402 V
51 0 V
0 -1402 V
-51 0 V
Z stroke
5973 440 N
0 1210 V
51 0 V
0 -1210 V
-51 0 V
Z stroke
6024 440 N
0 1026 V
50 0 V
0 -1026 V
-50 0 V
Z stroke
6074 440 N
0 859 V
51 0 V
0 -859 V
-51 0 V
Z stroke
6125 440 N
0 714 V
51 0 V
0 -714 V
-51 0 V
Z stroke
6176 440 N
0 587 V
50 0 V
0 -587 V
-50 0 V
Z stroke
6226 440 N
0 475 V
51 0 V
0 -475 V
-51 0 V
Z stroke
6277 440 N
0 374 V
51 0 V
0 -374 V
-51 0 V
Z stroke
6328 440 N
0 282 V
50 0 V
0 -282 V
-50 0 V
Z stroke
6378 440 N
0 202 V
51 0 V
0 -202 V
-51 0 V
Z stroke
1.000 UL
LTb
1386 4775 N
0 -4335 V
5417 0 V
0 4335 V
-5417 0 V
Z stroke
1.000 UP
1.000 UL
LTb
stroke
grestore
end
showpage
%%Trailer
